EDI_AGYDT_20160311
TableName	Actflag	Created	Changed	AgydtID	AgncyID	EffectiveDate	OldRegistrarName	OldAdd1	OldAdd2	OldAdd3	OldAdd4	OldAdd5	OldAdd6	OldCity	OldCntryCD	OldWebSite	OldContact1	OldTel1	OldFax1	Oldemail1	OldContact2	OldTel2	OldFax2	Oldemail2	OldState	NewRegistrarName	NewAdd1	NewAdd2	NewAdd3	NewAdd4	NewAdd5	NewAdd6	NewCity	NewCntryCD	NewWebSite	NewContact1	NewTel1	NewFax1	Newemail1	NewContact2	NewTel2	NewFax2	Newemail2	NewState
EDI_ENDOFFILE
