EDI_IFCHG_20160311
TableName	Actflag	Created	Changed	IfchgID	SecID	ISIN	NotificationDate	OldIntPayFrqncy	OldIntPayDate1	OldIntPayDate2	OldIntPayDate3	OldIntPayDate4	NewIntPayFrqncy	NewIntPayDate1	NewIntPayDate2	NewIntPayDate3	NewIntPayDate4	Eventtype
EDI_ENDOFFILE
