EDI_ICC_20160311
TableName	Actflag	Created	Changed	IccID	SecID	ISIN	EffectiveDate	OldISIN	NewISIN	OldUSCode	NewUSCode	OldVALOREN	NewVALOREN	EventType	RelEventID	OldCommonCode	NewCommonCode
EDI_ENDOFFILE
