EDI_SACHG_20160311
TableName	Actflag	Created	Changed	SachgID	ScagyID	SecID	ISIN	EffectiveDate	OldRelationship	NewRelationship	OldAgncyID	NewAgncyID	OldSpStartDate	NewSpStartDate	OldSpEndDate	NewSpEndDate	OldGuaranteeType	NewGuaranteeType
EDI_ENDOFFILE
