EDI_SCEXH_20160311
TableName	Actflag	Created	Changed	ScExhID	SecID	ISIN	ExchgCD	ListStatus	Lot	MinTrdgQty	ListDate	DelistDate	LocalCode	JunkLocalcode	PriceTick	TickSize	ListCategory	Notes
SCEXH	U	2015/04/01	2016/03/11	6329315	4477819		AUASX	D				2016/02/22						
SCEXH	U	2015/04/01	2016/03/11	6329333	4477833		AUASX	D				2016/02/22						
SCEXH	I	2016/03/11	2016/03/11	6670272	4718400	XS1375202659	AUASX	N			2016/03/09		ANVHE					
SCEXH	U	2008/03/04	2016/03/11	882497	789529	AU0000TRQHA6	AUASX	D				2016/02/22	TRQHA					
SCEXH	U	2008/03/04	2016/03/11	882500	789533	AU0000TRQHB4	AUASX	D				2016/02/22	TRQHB					
SCEXH	I	2016/03/11	2016/03/11	6670587	4723782	AU3EC1668419	AUBND											
SCEXH	I	2016/03/11	2016/03/11	6670590	4723802	AU3EC1668468	AUBND											
SCEXH	I	2016/03/11	2016/03/11	6670612	4724501	AU3EP0248892	AUBND											
SCEXH	I	2016/03/11	2016/03/11	6670798	4724659	AU3EC1668773	AUBND											
SCEXH	I	2016/03/11	2016/03/11	6670622	4724508	AU3EC1668765	AUBND											
SCEXH	I	2016/03/11	2016/03/11	6671242	4725062	AU3EC1669029	AUBND											
SCEXH	I	2016/03/11	2016/03/11	6670451	4724372	AU3EC1665175	AUBND											
SCEXH	I	2016/03/11	2016/03/11	6670645	4724530	AU3EC1669177	AUBND											
SCEXH	I	2016/03/11	2016/03/11	6670648	4724532	AU3EC1669185	AUBND											
SCEXH	I	2016/03/11	2016/03/11	6670651	4724534	AU3EC1668740	AUBND											
SCEXH	I	2016/03/11	2016/03/11	6670668	4724559	AU3EC1668922	AUBND											
SCEXH	I	2016/03/11	2016/03/11	6670694	4724575	AU3FN0030557	AUBND											
SCEXH	I	2016/03/11	2016/03/11	6670699	4724580	AU3EC1668906	AUBND											
SCEXH	I	2016/03/11	2016/03/11	6670709	4724590	AU3EC1668724	AUBND											
SCEXH	I	2016/03/11	2016/03/11	6670715	4724591	AU3EC1668914	AUBND											
SCEXH	I	2016/03/11	2016/03/11	6670716	4724592	AU3EC1668948	AUBND											
SCEXH	I	2016/03/11	2016/03/11	6670718	4724594	AU3EC1668955	AUBND											
SCEXH	I	2016/03/11	2016/03/11	6670719	4724595	AU3EC1668930	AUBND											
SCEXH	I	2016/03/11	2016/03/11	6670720	4724596	AU3EC1668534	AUBND											
SCEXH	I	2016/03/11	2016/03/11	6670725	4724597	AU3EC1668567	AUBND											
SCEXH	I	2016/03/11	2016/03/11	6670726	4724600	AU3EC1668526	AUBND											
SCEXH	I	2016/03/11	2016/03/11	6670729	4724601	AU3EC1668542	AUBND											
SCEXH	I	2016/03/11	2016/03/11	6670730	4724603	AU3EC1668559	AUBND											
SCEXH	I	2016/03/11	2016/03/11	6670732	4724605	AU3EC1668609	AUBND											
SCEXH	I	2016/03/11	2016/03/11	6670737	4724609	AU3EC1668641	AUBND											
SCEXH	I	2016/03/11	2016/03/11	6670742	4724611	AU3EC1668757	AUBND											
SCEXH	I	2016/03/11	2016/03/11	6670749	4724618	AU3EC1668781	AUBND											
SCEXH	I	2016/03/11	2016/03/11	6670756	4724624	AU3EC1668807	AUBND											
SCEXH	I	2016/03/11	2016/03/11	6670771	4724636	AU3EC1669086	AUBND											
SCEXH	I	2016/03/11	2016/03/11	6670772	4724637	AU3EC1668963	AUBND											
SCEXH	I	2016/03/11	2016/03/11	6670777	4724640	AU3EC1668633	AUBND											
SCEXH	I	2016/03/11	2016/03/11	6670780	4724643	AU3EC1668989	AUBND											
SCEXH	I	2016/03/11	2016/03/11	6670804	4724662	AU3EC1669094	AUBND											
SCEXH	I	2016/03/11	2016/03/11	6670808	4724665	AU3EC1669078	AUBND											
SCEXH	I	2016/03/11	2016/03/11	6670811	4724666	AU3EC1668658	AUBND											
SCEXH	I	2016/03/11	2016/03/11	6670813	4724668	AU3EC1668690	AUBND											
SCEXH	I	2016/03/11	2016/03/11	6670817	4724672	AU3EC1669144	AUBND											
SCEXH	I	2016/03/11	2016/03/11	6670822	4724674	AU3CB0236438	AUBND											
SCEXH	I	2016/03/11	2016/03/11	6671122	4724962	AU3EC1669219	AUBND											
SCEXH	I	2016/03/11	2016/03/11	6671137	4724976	AU3EC1669227	AUBND											
SCEXH	I	2016/03/11	2016/03/11	6671140	4724979	AU3EC1669235	AUBND											
SCEXH	I	2016/03/11	2016/03/11	6671143	4724980	AU3EC1668674	AUBND											
SCEXH	I	2016/03/11	2016/03/11	6671157	4724987	AU3EC1668732	AUBND											
SCEXH	I	2016/03/11	2016/03/11	6671161	4724990	AU3EC1669110	AUBND											
SCEXH	I	2016/03/11	2016/03/11	6671163	4724992	AU3EC1669169	AUBND											
SCEXH	I	2016/03/11	2016/03/11	6671166	4724993	AU3EC1669136	AUBND											
SCEXH	I	2016/03/11	2016/03/11	6671177	4725003	AU3EC1669151	AUBND											
SCEXH	I	2016/03/11	2016/03/11	6671181	4725008	AU3EC1669193	AUBND											
SCEXH	I	2016/03/11	2016/03/11	6671185	4725010	AU3EC1669201	AUBND											
SCEXH	I	2016/03/11	2016/03/11	6671195	4725020	AU3EC1668575	AUBND											
SCEXH	I	2016/03/11	2016/03/11	6671198	4725023	AU3EC1668708	AUBND											
SCEXH	I	2016/03/11	2016/03/11	6671200	4725026	AU3EC1668666	AUBND											
SCEXH	I	2016/03/11	2016/03/11	6671203	4725028	AU3EC1668591	AUBND											
SCEXH	I	2016/03/11	2016/03/11	6671208	4725033	AU3EC1668625	AUBND											
SCEXH	I	2016/03/11	2016/03/11	6671210	4725035	AU3EC1668583	AUBND											
SCEXH	I	2016/03/11	2016/03/11	6671214	4725039	AU3EC1668856	AUBND											
SCEXH	I	2016/03/11	2016/03/11	6671219	4725043	AU3EC1669102	AUBND											
SCEXH	I	2016/03/11	2016/03/11	6671223	4725047	AU3EC1669003	AUBND											
SCEXH	I	2016/03/11	2016/03/11	6671226	4725049	AU3EC1669011	AUBND											
SCEXH	I	2016/03/11	2016/03/11	6671228	4725052	AU3EC1669037	AUBND											
SCEXH	I	2016/03/11	2016/03/11	6671230	4725054	AU3EC1669045	AUBND											
SCEXH	I	2016/03/11	2016/03/11	6671246	4725067	AU3EC1668831	AUBND											
SCEXH	I	2016/03/11	2016/03/11	6671249	4725070	AU3EC1668849	AUBND											
SCEXH	I	2016/03/11	2016/03/11	6671252	4725073	AU3EC1669052	AUBND											
SCEXH	I	2016/03/11	2016/03/11	6671255	4725076	AU3EC1668880	AUBND											
SCEXH	I	2016/03/11	2016/03/11	6671258	4725080	AU3EC1669128	AUBND											
SCEXH	I	2016/03/11	2016/03/11	6671265	4725087	AU3EC1668997	AUBND											
SCEXH	I	2016/03/11	2016/03/11	6671271	4725092	AU3EC1669243	AUBND											
SCEXH	I	2016/03/11	2016/03/11	6671326	4725145	AU3EC1668815	AUBND											
SCEXH	I	2016/03/11	2016/03/11	6671329	4725148	AU3EC1668823	AUBND											
SCEXH	I	2016/03/11	2016/03/11	6671331	4725150	AU3EP0248918	AUBND											
SCEXH	I	2016/03/11	2016/03/11	6671335	4725155	AU3EP0248900	AUBND											
SCEXH	I	2016/03/11	2016/03/11	6671339	4725159	AU3EC1668872	AUBND											
SCEXH	I	2016/03/11	2016/03/11	6671353	4725171	AU3EC1668682	AUBND											
SCEXH	I	2016/03/11	2016/03/11	6671357	4725176	AU3EC1668799	AUBND											
SCEXH	I	2016/03/11	2016/03/11	6671358	4725177	AU3EC1669060	AUBND											
SCEXH	I	2016/03/11	2016/03/11	6671361	4725180	AU3EC1668971	AUBND											
SCEXH	I	2016/03/11	2016/03/11	6671362	4725182	AU3EC1668518	AUBND											
SCEXH	I	2016/03/11	2016/03/11	6671364	4725183	AU3EC1668898	AUBND											
SCEXH	I	2016/03/11	2016/03/11	6671366	4725186	AU3EP0248876	AUBND											
SCEXH	I	2016/03/11	2016/03/11	6671370	4725189	AU3EP0248884	AUBND											
SCEXH	I	2016/03/11	2016/03/11	6671371	4725190	AU3EC1668864	AUBND											
EDI_ENDOFFILE
