EDI_BSCHG_20180613
TableName	Actflag	Created	Changed	BschgID	SecID	ISIN	NotificationDate	OldBondType	NewBondType	OldCurenCD	NewCurenCD	OldPIU	NewPIU	OldInterestBasis	NewInterestBasis	Eventtype	OldInterestCurrency	NewInterestCurrency	OldMaturityCurrency	NewMaturityCurrency	OldIntBusDayConv	NewIntBusDayConv	OldMatBusDayConv	NewMatBusDayConv	Notes
BSCHG	I	2016/12/08	2016/12/08	221495	170738	US35177PAL13	2002/02/11	BD	BD	USD	USD			FXD	FR	CORR	USD	USD	USD	USD					
BSCHG	I	2018/06/11	2018/06/11	264988	5560917	US3361588037	2018/06/06	PRF	PRF	USD	USD	P	P	UNKNOWN	FXD	CORR	USD	USD	USD	USD					
BSCHG	I	2018/06/13	2018/06/13	265101	5560990	US3132X0Z616	2018/06/12	MTN	NT	USD	USD			FXD	FXD	CORR	USD	USD	USD	USD	FBD	FBD	FBD	FBD	
BSCHG	I	2018/06/13	2018/06/13	265120	5568763	US3134GSQF57	2018/06/13	MTN	MTN	USD	USD			FXD	SU	CORR	USD	USD	USD	USD	FBD	FBD	FBD	FBD	
BSCHG	I	2018/06/13	2018/06/13	265148	5568706	US75968N3098	2018/06/11	PRF	PRF	USD	USD	P	P	UNKNOWN	FXD	CORR	USD	USD	USD	USD	FBD	FBD	FBD	FBD	
BSCHG	I	2018/06/13	2018/06/13	265150	5230678	US22550BF401	2017/08/09	BD	BD	USD	USD			FXD	FR	CORR	USD	USD	USD	USD					
BSCHG	I	2018/06/13	2018/06/13	265151	5567197	US38150A7J85	2018/06/12	BD	NT	USD	USD			ZC	FXD	CORR			USD	USD			FBD	FBD	
BSCHG	I	2018/06/13	2018/06/13	265154	5571515	US404280BT50	2018/06/12	NT	NT	USD	USD			FXD	FXDFR	CORR	USD	USD	USD	USD					
BSCHG	I	2018/06/13	2018/06/13	265155	5568870	US46647PAS56	2018/06/12	NT	NT	USD	USD			FR	FXDFR	CORR	USD	USD	USD	USD	FBD	FBD	FBD	MFBD	
EDI_ENDOFFILE
