EDI_REDMT_20180613
TableName	Actflag	Created	Changed	RedmtID	SecID	ISIN	RedemDate	RedemCurrency	RedemPrice	MandOptFlag	PartFinal	RedemType	RedemAmount	RedemPremium	RedemInPercent	PriceAsPercent	PremiumAsPercent	Notes
REDMT	I	2018/06/13	2018/06/13	382792	5571779	US69342WAB72	2015/08/20	USD		M	P	AMT	1.665					
REDMT	I	2018/06/13	2018/06/13	382793	5571779	US69342WAB72	2016/08/22	USD		M	P	AMT	1.63					
REDMT	I	2018/06/13	2018/06/13	382794	5571779	US69342WAB72	2017/08/20	USD		M	P	AMT	1.694999					
REDMT	I	2018/06/13	2018/06/13	382795	5571779	US69342WAB72	2019/08/20	USD		M	P	AMT	0.156831					
REDMT	I	2018/06/13	2018/06/13	382796	5571779	US69342WAB72	2020/08/20	USD		M	F	AMT	5343.17					
EDI_ENDOFFILE
